sim.vcd
$date
	Mon Jun 14 15:11:11 2021
$end
$version
	Icarus Verilog
$end
$timescale
	1ps
$end
$scope module top_cube_no_pll_tb $end
$var wire 1 ! vga_vs $end
$var wire 1 " vga_r $end
$var wire 1 # vga_hs $end
$var wire 1 $ vga_g $end
$var wire 1 % vga_b $end
$var wire 16 & cycle_count [15:0] $end
$var reg 1 ' adv $end
$var reg 1 ( clk $end
$var reg 1 ) init $end
$var reg 1 * rst $end
$var reg 1 + tic $end
$var reg 1 , toc $end
$scope module _top_cube_no_pll $end
$var wire 1 - clk_locked $end
$var wire 1 ( clk_pix $end
$var wire 3 . fb_color [2:0] $end
$var wire 1 / fb_we $end
$var wire 1 0 rst $end
$var wire 1 % vga_b $end
$var wire 1 $ vga_g $end
$var wire 1 # vga_hs $end
$var wire 1 " vga_r $end
$var wire 1 ! vga_vs $end
$var wire 6 1 sy [5:0] $end
$var wire 6 2 sx [5:0] $end
$var wire 6 3 ly1 [5:0] $end
$var wire 6 4 ly0 [5:0] $end
$var wire 6 5 lx1 [5:0] $end
$var wire 6 6 lx0 [5:0] $end
$var wire 6 7 fb_y [5:0] $end
$var wire 6 8 fb_x [5:0] $end
$var wire 1 9 fb_oe $end
$var wire 1 : dt_frame $end
$var wire 1 ; dt_de $end
$var wire 1 < drawing $end
$var wire 1 = draw_done $end
$var wire 6 > dl_y [5:0] $end
$var wire 6 ? dl_x [5:0] $end
$var wire 3 @ cube_color [2:0] $end
$var wire 1 A _vga_vs $end
$var wire 1 B _vga_r $end
$var wire 1 C _vga_hs $end
$var wire 1 D _vga_g $end
$var wire 1 E _vga_b $end
$var reg 1 F draw_start $end
$var reg 4 G line_id [3:0] $end
$var integer 32 H state [31:0] $end
$scope module _display_timing_800x600 $end
$var wire 1 ( clk $end
$var wire 1 ; de $end
$var wire 1 : frame $end
$var wire 1 C hsync $end
$var wire 1 I rst $end
$var wire 1 A vsync $end
$var wire 1 J y_max $end
$var wire 1 K x_max $end
$var reg 6 L sx [5:0] $end
$var reg 6 M sy [5:0] $end
$upscope $end
$scope module _draw_line $end
$var wire 1 ( clk $end
$var wire 1 = done $end
$var wire 1 < drawing $end
$var wire 1 N oe $end
$var wire 1 O rst $end
$var wire 1 F start $end
$var wire 1 P tmp_active $end
$var wire 1 Q tmp_done $end
$var wire 6 R x [5:0] $end
$var wire 6 S y [5:0] $end
$var wire 1 T y_done $end
$var wire 6 U y1 [5:0] $end
$var wire 6 V y0 [5:0] $end
$var wire 1 W x_done $end
$var wire 6 X x1 [5:0] $end
$var wire 6 Y x0 [5:0] $end
$var wire 2 Z mov_vec [1:0] $end
$var reg 1 [ _done $end
$var reg 6 \ _x [5:0] $end
$var reg 6 ] _y [5:0] $end
$var reg 1 ^ active $end
$var reg 1 _ down $end
$var reg 13 ` dx [12:0] $end
$var reg 13 a dy [12:0] $end
$var reg 13 b err [12:0] $end
$var reg 1 c movx $end
$var reg 1 d movy $end
$var reg 1 e right $end
$var reg 1 f swap $end
$var reg 13 g tmp_err [12:0] $end
$var reg 6 h tmp_x [5:0] $end
$var reg 6 i tmp_y [5:0] $end
$var reg 6 j xa [5:0] $end
$var reg 6 k xb [5:0] $end
$var reg 6 l ya [5:0] $end
$var reg 6 m yb [5:0] $end
$upscope $end
$scope module _framebuffer $end
$var wire 1 E b $end
$var wire 1 ( clk $end
$var wire 3 n color [2:0] $end
$var wire 1 D g $end
$var wire 1 ; oe $end
$var wire 1 B r $end
$var wire 1 o rst $end
$var wire 6 p sx [5:0] $end
$var wire 6 q sy [5:0] $end
$var wire 1 / we $end
$var wire 6 r x [5:0] $end
$var wire 6 s y [5:0] $end
$var reg 1 E _b $end
$var reg 1 D _g $end
$var reg 1 B _r $end
$var reg 1 t in_x $end
$var reg 1 u in_y $end
$var reg 10 v read_addr [9:0] $end
$var reg 10 w write_addr [9:0] $end
$scope begin $ivl_for_loop0 $end
$var integer 32 x i [31:0] $end
$upscope $end
$upscope $end
$scope module _get_cube $end
$var wire 3 y a [2:0] $end
$var wire 3 z b [2:0] $end
$var wire 1 ( clk $end
$var wire 3 { color [2:0] $end
$var wire 4 | line_id [3:0] $end
$var wire 1 } rst $end
$var wire 6 ~ x0 [5:0] $end
$var wire 6 !" x1 [5:0] $end
$var wire 6 "" y0 [5:0] $end
$var wire 6 #" y1 [5:0] $end
$var reg 3 $" _color [2:0] $end
$var reg 6 %" _x0 [5:0] $end
$var reg 6 &" _x1 [5:0] $end
$var reg 6 '" _y0 [5:0] $end
$var reg 6 (" _y1 [5:0] $end
$upscope $end
$upscope $end
$scope module cycle_counter $end
$var wire 1 ( clk $end
$var wire 1 )" clk_en $end
$var wire 16 *" o [15:0] $end
$var wire 1 * rst $end
$var reg 16 +" cnt [15:0] $end
$scope begin proc_count $end
$upscope $end
$upscope $end
$scope begin poc_tic_toc $end
$upscope $end
$upscope $end
$enddefinitions $end
#0
$dumpvars
b0 +"
b0 *"
1)"
b1010 ("
b0 '"
b0 &"
b0 %"
b1 $"
b1010 #"
b0 ""
b0 !"
b0 ~
0}
b0 |
b1 {
b101 z
b101 y
b1100000000 x
bx w
bx v
xu
xt
bx s
bx r
bx q
bx p
0o
b1 n
b1010 m
b0 l
b0 k
b0 j
bx i
bx h
bx g
0f
0e
xd
xc
bx b
bx a
bx `
1_
x^
bx ]
bx \
x[
bx Z
b0 Y
b0 X
xW
b0 V
b1010 U
xT
bx S
bx R
xQ
xP
0O
1N
bx M
bx L
xK
xJ
0I
b0 H
b0 G
xF
xE
xD
xC
xB
xA
b1 @
bx ?
bx >
x=
x<
x;
x:
09
bx 8
bx 7
b0 6
b0 5
b0 4
b1010 3
bx 2
bx 1
10
x/
b1 .
1-
0,
0+
0*
1)
0(
0'
b0 &
x%
x$
x#
x"
x!
$end
#10000
1!
1A
1#
1C
0"
0B
0$
0D
0%
0E
1u
b0 w
b0 v
0Q
1;
1:
b0 7
b0 s
1t
1d
b11 Z
1c
b0 g
0T
b1 i
b0 8
b0 r
0/
0<
0P
0J
b0 1
b0 M
b0 q
0K
b0 2
b0 L
b0 p
b0 a
b0 `
b0 b
0=
0[
b0 >
b0 S
b0 ]
b0 ?
b0 R
b0 \
0^
1I
1o
1}
1O
00
1*
#20000
0I
0o
0}
0O
10
0*
#100000
0:
x/
x<
xP
b1 2
b1 L
b1 p
x^
1'
0)
b1 H
b1 &
b1 *"
b1 +"
1(
#200000
0(
#300000
b10 2
b10 L
b10 p
b10 H
1F
b10 &
b10 *"
b10 +"
1,
1+
1(
#400000
0(
#500000
1W
b0 h
1/
1<
1P
b1 Z
0c
b1010 g
b11 2
b11 L
b11 p
1^
b1010 a
0F
b11 &
b11 *"
b11 +"
0+
1(
#600000
0(
#700000
b110000 w
b110000 v
b1 7
b1 s
0%
0E
b11 Z
1c
b10100 g
b10 i
b100 2
b100 L
b100 p
b1010 b
b1 >
b1 S
b1 ]
b100 &
b100 *"
b100 +"
0,
1+
1(
#800000
0(
#900000
b1100000 w
b1100000 v
b10 7
b10 s
0%
0E
b11110 g
b11 i
b101 2
b101 L
b101 p
b10100 b
b10 >
b10 S
b10 ]
b101 &
b101 *"
b101 +"
0+
1(
#1000000
0(
#1100000
b10010000 w
b10010000 v
b11 7
b11 s
0%
0E
b101000 g
b100 i
b110 2
b110 L
b110 p
b11110 b
b11 >
b11 S
b11 ]
b110 &
b110 *"
b110 +"
1,
1+
1(
#1200000
0(
#1300000
b11000000 w
b11000000 v
b100 7
b100 s
0%
0E
b110010 g
b101 i
b111 2
b111 L
b111 p
b101000 b
b100 >
b100 S
b100 ]
b111 &
b111 *"
b111 +"
0+
1(
#1400000
0(
#1500000
b11110000 w
b11110000 v
b101 7
b101 s
0%
0E
b111100 g
b110 i
b1000 2
b1000 L
b1000 p
b110010 b
b101 >
b101 S
b101 ]
b1000 &
b1000 *"
b1000 +"
0,
1+
1(
#1600000
0(
#1700000
b100100000 w
b100100000 v
b110 7
b110 s
0%
0E
b1000110 g
b111 i
b1001 2
b1001 L
b1001 p
b111100 b
b110 >
b110 S
b110 ]
b1001 &
b1001 *"
b1001 +"
0+
1(
#1800000
0(
#1900000
b101010000 w
b101010000 v
b111 7
b111 s
0%
0E
b1010000 g
b1000 i
b1010 2
b1010 L
b1010 p
b1000110 b
b111 >
b111 S
b111 ]
b1010 &
b1010 *"
b1010 +"
1,
1+
1(
#2000000
0(
#2100000
b110000000 w
b110000000 v
b1000 7
b1000 s
0%
0E
b1011010 g
b1001 i
b1011 2
b1011 L
b1011 p
b1010000 b
b1000 >
b1000 S
b1000 ]
b1011 &
b1011 *"
b1011 +"
0+
1(
#2200000
0(
#2300000
b110110000 w
b110110000 v
1Q
b1001 7
b1001 s
0%
0E
b1100100 g
1T
b1010 i
b1100 2
b1100 L
b1100 p
b1011010 b
b1001 >
b1001 S
b1001 ]
b1100 &
b1100 *"
b1100 +"
0,
1+
1(
#2400000
0(
#2500000
b111100000 w
b111100000 v
0/
0<
0P
b1010 7
b1010 s
0%
0E
b1101110 g
b1101 2
b1101 L
b1101 p
b1100100 b
1=
1[
b1010 >
b1010 S
b1010 ]
b1101 &
b1101 *"
b1101 +"
0+
1(
#2600000
0(
#2700000
b1 h
0Q
0_
1e
b1010 l
0W
b1010 k
b10 .
b10 n
b10 @
b10 {
b10 $"
b1010 5
b1010 X
b1010 !"
b1010 &"
b1010 4
b1010 V
b1010 ""
b1010 '"
b1111000 g
b1110 2
b1110 L
b1110 p
b1101110 b
0=
0[
0^
b1 H
b1 G
b1 |
b1110 &
b1110 *"
b1110 +"
1,
1+
1(
#2800000
0(
#2900000
b1111 2
b1111 L
b1111 p
b10 H
1F
b1111 &
b1111 *"
b1111 +"
0+
1(
#3000000
0(
#3100000
1/
1<
1P
b10100 g
b10000 2
b10000 L
b10000 p
b0 a
b1010 `
b1010 b
1^
0F
b10000 &
b10000 *"
b10000 +"
0,
1+
1(
#3200000
0(
#3300000
b111100011 w
b111100011 v
b1 8
b1 r
0$
0D
b11110 g
b10 h
b10001 2
b10001 L
b10001 p
b10100 b
b1 ?
b1 R
b1 \
b10001 &
b10001 *"
b10001 +"
0+
1(
#3400000
0(
#3500000
b111100110 w
b111100110 v
b10 8
b10 r
0$
0D
b101000 g
b11 h
b10010 2
b10010 L
b10010 p
b11110 b
b10 ?
b10 R
b10 \
b10010 &
b10010 *"
b10010 +"
1,
1+
1(
#3600000
0(
#3700000
b111101001 w
b111101001 v
b11 8
b11 r
0$
0D
b110010 g
b100 h
b10011 2
b10011 L
b10011 p
b101000 b
b11 ?
b11 R
b11 \
b10011 &
b10011 *"
b10011 +"
0+
1(
#3800000
0(
#3900000
b111101100 w
b111101100 v
b100 8
b100 r
0$
0D
b111100 g
b101 h
b10100 2
b10100 L
b10100 p
b110010 b
b100 ?
b100 R
b100 \
b10100 &
b10100 *"
b10100 +"
0,
1+
1(
#4000000
0(
#4100000
b111101111 w
b111101111 v
b101 8
b101 r
0$
0D
b1000110 g
b110 h
b10101 2
b10101 L
b10101 p
b111100 b
b101 ?
b101 R
b101 \
b10101 &
b10101 *"
b10101 +"
0+
1(
#4200000
0(
#4300000
b111110010 w
b111110010 v
b110 8
b110 r
0$
0D
b1010000 g
b111 h
b10110 2
b10110 L
b10110 p
b1000110 b
b110 ?
b110 R
b110 \
b10110 &
b10110 *"
b10110 +"
1,
1+
1(
#4400000
0(
#4500000
b111110101 w
b111110101 v
b111 8
b111 r
0$
0D
b1011010 g
b1000 h
b10111 2
b10111 L
b10111 p
b1010000 b
b111 ?
b111 R
b111 \
b10111 &
b10111 *"
b10111 +"
0+
1(
#4600000
0(
#4700000
b111111000 w
b111111000 v
b1000 8
b1000 r
0$
0D
b1100100 g
b1001 h
b11000 2
b11000 L
b11000 p
b1011010 b
b1000 ?
b1000 R
b1000 \
b11000 &
b11000 *"
b11000 +"
0,
1+
1(
#4800000
0(
#4900000
b111111011 w
b111111011 v
1Q
b1001 8
b1001 r
0$
0D
b1101110 g
1W
b1010 h
b11001 2
b11001 L
b11001 p
b1100100 b
b1001 ?
b1001 R
b1001 \
b11001 &
b11001 *"
b11001 +"
0+
1(
#5000000
0(
#5100000
b111111110 w
b111111110 v
0/
0<
0P
b1010 8
b1010 r
0$
0D
b1111000 g
b11010 2
b11010 L
b11010 p
b1101110 b
1=
1[
b1010 ?
b1010 R
b1010 \
b11010 &
b11010 *"
b11010 +"
1,
1+
1(
#5200000
0(
#5300000
b1001 i
0Q
0e
0T
b0 m
b1010 j
1f
b11 .
b11 n
b11 @
b11 {
b11 $"
b0 3
b0 U
b0 #"
b0 ("
b1010 6
b1010 Y
b1010 ~
b1010 %"
b10000010 g
b11011 2
b11011 L
b11011 p
0^
b1111000 b
0=
0[
b1 H
b10 G
b10 |
b11011 &
b11011 *"
b11011 +"
0+
1(
#5400000
0(
#5500000
b11100 2
b11100 L
b11100 p
b10 H
1F
b11100 &
b11100 *"
b11100 +"
0,
1+
1(
#5600000
0(
#5700000
1/
1<
1P
b10100 g
b11101 2
b11101 L
b11101 p
1^
b1010 a
b0 `
b1010 b
0F
b11101 &
b11101 *"
b11101 +"
0+
1(
#5800000
0(
#5900000
b111001110 w
b111001110 v
b1001 7
b1001 s
0$
0D
0%
0E
b11110 g
b1000 i
b11110 2
b11110 L
b11110 p
b10100 b
b1001 >
b1001 S
b1001 ]
b11110 &
b11110 *"
b11110 +"
1,
1+
1(
#6000000
0(
#6100000
b110011110 w
b110011110 v
b1000 7
b1000 s
0$
0D
0%
0E
b101000 g
b111 i
b11111 2
b11111 L
b11111 p
b11110 b
b1000 >
b1000 S
b1000 ]
b11111 &
b11111 *"
b11111 +"
0+
1(
#6200000
0(
#6300000
b101101110 w
b101101110 v
b111 7
b111 s
0$
0D
0%
0E
b110010 g
b110 i
b100000 2
b100000 L
b100000 p
b101000 b
b111 >
b111 S
b111 ]
b100000 &
b100000 *"
b100000 +"
0,
1+
1(
#6400000
0(
#6500000
b100111110 w
b100111110 v
b110 7
b110 s
0$
0D
0%
0E
b111100 g
b101 i
b100001 2
b100001 L
b100001 p
b110010 b
b110 >
b110 S
b110 ]
b100001 &
b100001 *"
b100001 +"
0+
1(
#6600000
0(
#6700000
b100001110 w
b100001110 v
b101 7
b101 s
0$
0D
0%
0E
b1000110 g
b100 i
b100010 2
b100010 L
b100010 p
b111100 b
b101 >
b101 S
b101 ]
b100010 &
b100010 *"
b100010 +"
1,
1+
1(
#6800000
0(
#6900000
b11011110 w
b11011110 v
b100 7
b100 s
0$
0D
0%
0E
b1010000 g
b11 i
b100011 2
b100011 L
b100011 p
b1000110 b
b100 >
b100 S
b100 ]
b100011 &
b100011 *"
b100011 +"
0+
1(
#7000000
0(
#7100000
b10101110 w
b10101110 v
b11 7
b11 s
0$
0D
0%
0E
b1011010 g
b10 i
b100100 2
b100100 L
b100100 p
b1010000 b
b11 >
b11 S
b11 ]
b100100 &
b100100 *"
b100100 +"
0,
1+
1(
#7200000
0(
#7300000
b1111110 w
b1111110 v
b10 7
b10 s
0$
0D
0%
0E
b1100100 g
b1 i
b100101 2
b100101 L
b100101 p
b1011010 b
b10 >
b10 S
b10 ]
b100101 &
b100101 *"
b100101 +"
0+
1(
#7400000
0(
#7500000
b1001110 w
b1001110 v
1Q
b1 7
b1 s
0$
0D
0%
0E
b1101110 g
1T
b0 i
b100110 2
b100110 L
b100110 p
b1100100 b
b1 >
b1 S
b1 ]
b100110 &
b100110 *"
b100110 +"
1,
1+
1(
#7600000
0(
#7700000
b11110 w
b11110 v
0/
0<
0P
b0 7
b0 s
0$
0D
0%
0E
b1111000 g
b100111 2
b100111 L
b100111 p
b1101110 b
1=
1[
b0 >
b0 S
b0 ]
b100111 &
b100111 *"
b100111 +"
0+
1(
#7800000
0(
#7900000
b1001 h
0Q
b0 l
0W
b0 k
0f
b100 .
b100 n
b100 @
b100 {
b100 $"
b0 5
b0 X
b0 !"
b0 &"
b0 4
b0 V
b0 ""
b0 '"
b10000010 g
b101000 2
b101000 L
b101000 p
b1111000 b
0=
0[
0^
b1 H
b11 G
b11 |
b101000 &
b101000 *"
b101000 +"
0,
1+
1(
#8000000
0(
#8100000
b101001 2
b101001 L
b101001 p
b10 H
1F
b101001 &
b101001 *"
b101001 +"
0+
1(
#8200000
0(
#8300000
1/
1<
1P
b10100 g
b101010 2
b101010 L
b101010 p
b0 a
b1010 `
b1010 b
1^
0F
b101010 &
b101010 *"
b101010 +"
1,
1+
1(
#8400000
0(
#8500000
b11011 w
b11011 v
b1001 8
b1001 r
0"
0B
b11110 g
b1000 h
b101011 2
b101011 L
b101011 p
b10100 b
b1001 ?
b1001 R
b1001 \
b101011 &
b101011 *"
b101011 +"
0+
1(
#8600000
0(
#8700000
b11000 w
b11000 v
b1000 8
b1000 r
0"
0B
b101000 g
b111 h
b101100 2
b101100 L
b101100 p
b11110 b
b1000 ?
b1000 R
b1000 \
b101100 &
b101100 *"
b101100 +"
0,
1+
1(
#8800000
0(
#8900000
b10101 w
b10101 v
b111 8
b111 r
0"
0B
b110010 g
b110 h
b101101 2
b101101 L
b101101 p
b101000 b
b111 ?
b111 R
b111 \
b101101 &
b101101 *"
b101101 +"
0+
1(
#9000000
0(
#9100000
b10010 w
b10010 v
b110 8
b110 r
0"
0B
b111100 g
b101 h
b101110 2
b101110 L
b101110 p
b110010 b
b110 ?
b110 R
b110 \
b101110 &
b101110 *"
b101110 +"
1,
1+
1(
#9200000
0(
#9300000
b1111 w
b1111 v
b101 8
b101 r
0"
0B
b1000110 g
b100 h
b101111 2
b101111 L
b101111 p
b111100 b
b101 ?
b101 R
b101 \
b101111 &
b101111 *"
b101111 +"
0+
1(
#9400000
0(
#9500000
b1100 w
b1100 v
b100 8
b100 r
0"
0B
b1010000 g
b11 h
b110000 2
b110000 L
b110000 p
b1000110 b
b100 ?
b100 R
b100 \
b110000 &
b110000 *"
b110000 +"
0,
1+
1(
#9600000
0(
#9700000
b1001 w
b1001 v
b11 8
b11 r
0"
0B
b1011010 g
b10 h
b110001 2
b110001 L
b110001 p
b1010000 b
b11 ?
b11 R
b11 \
b110001 &
b110001 *"
b110001 +"
0+
1(
#9800000
0(
#9900000
b110 w
b110 v
b10 8
b10 r
0"
0B
b1100100 g
b1 h
b110010 2
b110010 L
b110010 p
b1011010 b
b10 ?
b10 R
b10 \
b110010 &
b110010 *"
b110010 +"
1,
1+
1(
#10000000
0(
#10100000
b11 w
b11 v
1Q
0;
b1 8
b1 r
0"
0B
b1101110 g
1W
b0 h
b110011 2
b110011 L
b110011 p
b1100100 b
b1 ?
b1 R
b1 \
b110011 &
b110011 *"
b110011 +"
0+
1(
#10200000
0(
#10300000
0#
0C
b0 w
b0 v
0/
0<
0P
b0 8
b0 r
b1111000 g
b110100 2
b110100 L
b110100 p
b1101110 b
1=
1[
b0 ?
b0 R
b0 \
b110100 &
b110100 *"
b110100 +"
0,
1+
1(
#10400000
0(
#10500000
b1 i
b111111 h
0Q
1#
1C
1_
0T
b1111 m
b101 l
0W
b101 k
b101 j
b1 .
b1 n
b1 @
b1 {
b1 $"
b1111 3
b1111 U
b1111 #"
b1111 ("
b101 5
b101 X
b101 !"
b101 &"
b101 4
b101 V
b101 ""
b101 '"
b101 6
b101 Y
b101 ~
b101 %"
b10000010 g
1K
b110101 2
b110101 L
b110101 p
0^
b1111000 b
0=
0[
b1 H
b100 G
b100 |
b110101 &
b110101 *"
b110101 +"
0+
1(
#10600000
0(
#10700000
1%
1E
1;
b1 1
b1 M
b1 q
0K
b0 2
b0 L
b0 p
b10 H
1F
b110110 &
b110110 *"
b110110 +"
1,
1+
1(
#10800000
0(
#10900000
0%
0E
b11111111 w
b11111111 v
1/
1<
1P
b101 7
b101 s
b101 8
b101 r
b10100 g
b110 i
b100 h
b1 2
b1 L
b1 p
1^
b1010 a
b0 `
b1010 b
b101 >
b101 S
b101 ]
b101 ?
b101 R
b101 \
0F
b110111 &
b110111 *"
b110111 +"
0+
1(
#11000000
0(
#11100000
b100101100 w
b100101100 v
b110 7
b110 s
b100 8
b100 r
0%
0E
b11110 g
b111 i
b11 h
b10 2
b10 L
b10 p
b10100 b
b110 >
b110 S
b110 ]
b100 ?
b100 R
b100 \
b111000 &
b111000 *"
b111000 +"
0,
1+
1(
#11200000
0(
#11300000
b101011001 w
b101011001 v
b111 7
b111 s
b11 8
b11 r
0%
0E
b101000 g
b1000 i
b10 h
b11 2
b11 L
b11 p
b11110 b
b111 >
b111 S
b111 ]
b11 ?
b11 R
b11 \
b111001 &
b111001 *"
b111001 +"
0+
1(
#11400000
0(
#11500000
b110000110 w
b110000110 v
b1000 7
b1000 s
b10 8
b10 r
0%
0E
b110010 g
b1001 i
b1 h
b100 2
b100 L
b100 p
b101000 b
b1000 >
b1000 S
b1000 ]
b10 ?
b10 R
b10 \
b111010 &
b111010 *"
b111010 +"
1,
1+
1(
#11600000
0(
#11700000
b110110011 w
b110110011 v
b1001 7
b1001 s
b1 8
b1 r
0%
0E
b111100 g
b1010 i
b0 h
b101 2
b101 L
b101 p
b110010 b
b1001 >
b1001 S
b1001 ]
b1 ?
b1 R
b1 \
b111011 &
b111011 *"
b111011 +"
0+
1(
#11800000
0(
#11900000
1$
1D
b111100000 w
b111100000 v
b1010 7
b1010 s
b0 8
b0 r
0%
0E
b1000110 g
b1011 i
b111111 h
b110 2
b110 L
b110 p
b111100 b
b1010 >
b1010 S
b1010 ]
b0 ?
b0 R
b0 \
b111100 &
b111100 *"
b111100 +"
0,
1+
1(
#12000000
0(
#12100000
0t
b1011001101 w
b1011001101 v
b1011 7
b1011 s
b111111 8
b111111 r
0$
0D
0%
0E
b1010000 g
b1100 i
b111110 h
b111 2
b111 L
b111 p
b1000110 b
b1011 >
b1011 S
b1011 ]
b111111 ?
b111111 R
b111111 \
b111101 &
b111101 *"
b111101 +"
0+
1(
#12200000
0(
#12300000
b1011111010 w
b1011111010 v
b1100 7
b1100 s
b111110 8
b111110 r
b1011010 g
b1101 i
b111101 h
b1000 2
b1000 L
b1000 p
b1010000 b
b1100 >
b1100 S
b1100 ]
b111110 ?
b111110 R
b111110 \
b111110 &
b111110 *"
b111110 +"
1,
1+
1(
#12400000
0(
#12500000
b1100100111 w
b1100100111 v
b1101 7
b1101 s
b111101 8
b111101 r
b1100100 g
b1110 i
b111100 h
b1001 2
b1001 L
b1001 p
b1011010 b
b1101 >
b1101 S
b1101 ]
b111101 ?
b111101 R
b111101 \
b111111 &
b111111 *"
b111111 +"
0+
1(
#12600000
0(
#12700000
b1101010100 w
b1101010100 v
b1110 7
b1110 s
b111100 8
b111100 r
b1101110 g
1T
b1111 i
b111011 h
b1010 2
b1010 L
b1010 p
b1100100 b
b1110 >
b1110 S
b1110 ]
b111100 ?
b111100 R
b111100 \
b1000000 &
b1000000 *"
b1000000 +"
0,
1+
1(
#12800000
0(
#12900000
b1110000001 w
b1110000001 v
b1111 7
b1111 s
b111011 8
b111011 r
b1111000 g
b111010 h
b1011 2
b1011 L
b1011 p
b1101110 b
b1111 >
b1111 S
b1111 ]
b111011 ?
b111011 R
b111011 \
b1000001 &
b1000001 *"
b1000001 +"
0+
1(
#13000000
0(
#13100000
b1101111110 w
b1101111110 v
b111010 8
b111010 r
b10000010 g
b111001 h
b1100 2
b1100 L
b1100 p
b1111000 b
b111010 ?
b111010 R
b111010 \
b1000010 &
b1000010 *"
b1000010 +"
1,
1+
1(
#13200000
0(
#13300000
b1101111011 w
b1101111011 v
b111001 8
b111001 r
b10001100 g
b111000 h
b1101 2
b1101 L
b1101 p
b10000010 b
b111001 ?
b111001 R
b111001 \
b1000011 &
b1000011 *"
b1000011 +"
0+
1(
#13400000
0(
#13500000
b1101111000 w
b1101111000 v
b111000 8
b111000 r
b10010110 g
b110111 h
b1110 2
b1110 L
b1110 p
b10001100 b
b111000 ?
b111000 R
b111000 \
b1000100 &
b1000100 *"
b1000100 +"
0,
1+
1(
#13600000
0(
#13700000
b1101110101 w
b1101110101 v
b110111 8
b110111 r
b10100000 g
b110110 h
b1111 2
b1111 L
b1111 p
b10010110 b
b110111 ?
b110111 R
b110111 \
b1000101 &
b1000101 *"
b1000101 +"
0+
1(
#13800000
0(
#13900000
b1101110010 w
b1101110010 v
b110110 8
b110110 r
b10101010 g
b110101 h
b10000 2
b10000 L
b10000 p
b10100000 b
b110110 ?
b110110 R
b110110 \
b1000110 &
b1000110 *"
b1000110 +"
1,
1+
1(
#14000000
0(
#14100000
b1101101111 w
b1101101111 v
b110101 8
b110101 r
b10110100 g
b110100 h
b10001 2
b10001 L
b10001 p
b10101010 b
b110101 ?
b110101 R
b110101 \
b1000111 &
b1000111 *"
b1000111 +"
0+
1(
#14200000
0(
#14300000
b1101101100 w
b1101101100 v
b110100 8
b110100 r
b10111110 g
b110011 h
b10010 2
b10010 L
b10010 p
b10110100 b
b110100 ?
b110100 R
b110100 \
b1001000 &
b1001000 *"
b1001000 +"
0,
1+
1(
#14400000
0(
#14500000
b1101101001 w
b1101101001 v
b110011 8
b110011 r
b11001000 g
b110010 h
b10011 2
b10011 L
b10011 p
b10111110 b
b110011 ?
b110011 R
b110011 \
b1001001 &
b1001001 *"
b1001001 +"
0+
1(
#14600000
0(
#14700000
b1101100110 w
b1101100110 v
b110010 8
b110010 r
b11010010 g
b110001 h
b10100 2
b10100 L
b10100 p
b11001000 b
b110010 ?
b110010 R
b110010 \
b1001010 &
b1001010 *"
b1001010 +"
1,
1+
1(
#14800000
0(
#14900000
b1101100011 w
b1101100011 v
b110001 8
b110001 r
b11011100 g
b110000 h
b10101 2
b10101 L
b10101 p
b11010010 b
b110001 ?
b110001 R
b110001 \
b1001011 &
b1001011 *"
b1001011 +"
0+
1(
#15000000
0(
#15100000
b1101100000 w
b1101100000 v
b110000 8
b110000 r
b11100110 g
b101111 h
b10110 2
b10110 L
b10110 p
b11011100 b
b110000 ?
b110000 R
b110000 \
b1001100 &
b1001100 *"
b1001100 +"
0,
1+
1(
#15200000
0(
#15300000
b1101011101 w
b1101011101 v
b101111 8
b101111 r
b11110000 g
b101110 h
b10111 2
b10111 L
b10111 p
b11100110 b
b101111 ?
b101111 R
b101111 \
b1001101 &
b1001101 *"
b1001101 +"
0+
1(
#15400000
0(
#15500000
b1101011010 w
b1101011010 v
b101110 8
b101110 r
b11111010 g
b101101 h
b11000 2
b11000 L
b11000 p
b11110000 b
b101110 ?
b101110 R
b101110 \
b1001110 &
b1001110 *"
b1001110 +"
1,
1+
1(
#15600000
0(
#15700000
b1101010111 w
b1101010111 v
b101101 8
b101101 r
b100000100 g
b101100 h
b11001 2
b11001 L
b11001 p
b11111010 b
b101101 ?
b101101 R
b101101 \
b1001111 &
b1001111 *"
b1001111 +"
0+
1(
#15800000
0(
#15900000
b1101010100 w
b1101010100 v
b101100 8
b101100 r
b100001110 g
b101011 h
b11010 2
b11010 L
b11010 p
b100000100 b
b101100 ?
b101100 R
b101100 \
b1010000 &
b1010000 *"
b1010000 +"
0,
1+
1(
#16000000
0(
#16100000
b1101010001 w
b1101010001 v
b101011 8
b101011 r
b100011000 g
b101010 h
b11011 2
b11011 L
b11011 p
b100001110 b
b101011 ?
b101011 R
b101011 \
b1010001 &
b1010001 *"
b1010001 +"
0+
1(
#16200000
0(
#16300000
b1101001110 w
b1101001110 v
b101010 8
b101010 r
b100100010 g
b101001 h
b11100 2
b11100 L
b11100 p
b100011000 b
b101010 ?
b101010 R
b101010 \
b1010010 &
b1010010 *"
b1010010 +"
1,
1+
1(
#16400000
0(
#16500000
b1101001011 w
b1101001011 v
b101001 8
b101001 r
b100101100 g
b101000 h
b11101 2
b11101 L
b11101 p
b100100010 b
b101001 ?
b101001 R
b101001 \
b1010011 &
b1010011 *"
b1010011 +"
0+
1(
#16600000
0(
#16700000
b1101001000 w
b1101001000 v
b101000 8
b101000 r
b100110110 g
b100111 h
b11110 2
b11110 L
b11110 p
b100101100 b
b101000 ?
b101000 R
b101000 \
b1010100 &
b1010100 *"
b1010100 +"
0,
1+
1(
#16800000
0(
#16900000
b1101000101 w
b1101000101 v
b100111 8
b100111 r
b101000000 g
b100110 h
b11111 2
b11111 L
b11111 p
b100110110 b
b100111 ?
b100111 R
b100111 \
b1010101 &
b1010101 *"
b1010101 +"
0+
1(
#17000000
0(
#17100000
b1101000010 w
b1101000010 v
b100110 8
b100110 r
b101001010 g
b100101 h
b100000 2
b100000 L
b100000 p
b101000000 b
b100110 ?
b100110 R
b100110 \
b1010110 &
b1010110 *"
b1010110 +"
1,
1+
1(
#17200000
0(
#17300000
b1100111111 w
b1100111111 v
b100101 8
b100101 r
b101010100 g
b100100 h
b100001 2
b100001 L
b100001 p
b101001010 b
b100101 ?
b100101 R
b100101 \
b1010111 &
b1010111 *"
b1010111 +"
0+
1(
#17400000
0(
#17500000
b1100111100 w
b1100111100 v
b100100 8
b100100 r
b101011110 g
b100011 h
b100010 2
b100010 L
b100010 p
b101010100 b
b100100 ?
b100100 R
b100100 \
b1011000 &
b1011000 *"
b1011000 +"
0,
1+
1(
#17600000
0(
#17700000
b1100111001 w
b1100111001 v
b100011 8
b100011 r
b101101000 g
b100010 h
b100011 2
b100011 L
b100011 p
b101011110 b
b100011 ?
b100011 R
b100011 \
b1011001 &
b1011001 *"
b1011001 +"
0+
1(
#17800000
0(
#17900000
b1100110110 w
b1100110110 v
b100010 8
b100010 r
b101110010 g
b100001 h
b100100 2
b100100 L
b100100 p
b101101000 b
b100010 ?
b100010 R
b100010 \
b1011010 &
b1011010 *"
b1011010 +"
1,
1+
1(
#18000000
0(
#18100000
b1100110011 w
b1100110011 v
b100001 8
b100001 r
b101111100 g
b100000 h
b100101 2
b100101 L
b100101 p
b101110010 b
b100001 ?
b100001 R
b100001 \
b1011011 &
b1011011 *"
b1011011 +"
0+
1(
#18200000
0(
