projects/vga_cube/tb_outputs/sim.vcd
$date
	Tue Jun 15 09:42:46 2021
$end
$version
	Icarus Verilog
$end
$timescale
	1ps
$end
$scope module get_cube_tb $end
$var wire 16 ! y1 [15:0] $end
$var wire 16 " y0 [15:0] $end
$var wire 16 # x1 [15:0] $end
$var wire 16 $ x0 [15:0] $end
$var wire 4 % line_id [3:0] $end
$var wire 5 & cycle_count [4:0] $end
$var wire 3 ' color [2:0] $end
$var reg 1 ( adv $end
$var reg 1 ) clk $end
$var reg 1 * init $end
$var reg 1 + rst $end
$var reg 1 , tic $end
$var reg 1 - toc $end
$scope module _get_cube $end
$var wire 3 . a [2:0] $end
$var wire 3 / b [2:0] $end
$var wire 1 ) clk $end
$var wire 3 0 color [2:0] $end
$var wire 4 1 line_id [3:0] $end
$var wire 1 + rst $end
$var wire 16 2 x0 [15:0] $end
$var wire 16 3 x1 [15:0] $end
$var wire 16 4 y0 [15:0] $end
$var wire 16 5 y1 [15:0] $end
$var reg 3 6 _color [2:0] $end
$var reg 16 7 _x0 [15:0] $end
$var reg 16 8 _x1 [15:0] $end
$var reg 16 9 _y0 [15:0] $end
$var reg 16 : _y1 [15:0] $end
$upscope $end
$scope module cycle_counter $end
$var wire 1 ) clk $end
$var wire 1 ; clk_en $end
$var wire 5 < o [4:0] $end
$var wire 1 + rst $end
$var reg 5 = cnt [4:0] $end
$scope begin proc_count $end
$upscope $end
$upscope $end
$scope begin poc_tic_toc $end
$upscope $end
$upscope $end
$enddefinitions $end
#0
$dumpvars
b0 =
b0 <
1;
b1010 :
b0 9
b0 8
b0 7
b1 6
b1010 5
b0 4
b0 3
b0 2
b0 1
b1 0
b101 /
b101 .
0-
0,
0+
1*
0)
0(
b1 '
b0 &
b0 %
b0 $
b0 #
b0 "
b1010 !
$end
#10000
1+
#20000
0+
#100000
b10 '
b10 0
b10 6
b1010 #
b1010 3
b1010 8
b1010 "
b1010 4
b1010 9
b1 %
b1 1
b1 &
b1 <
b1 =
1(
0*
1)
#200000
0)
#300000
b11 '
b11 0
b11 6
b0 !
b0 5
b0 :
b1010 $
b1010 2
b1010 7
b10 %
b10 1
b10 &
b10 <
b10 =
1-
1,
1)
#400000
0)
#500000
b100 '
b100 0
b100 6
b0 #
b0 3
b0 8
b0 "
b0 4
b0 9
b11 %
b11 1
b11 &
b11 <
b11 =
0,
1)
#600000
0)
#700000
b1 '
b1 0
b1 6
b1111 !
b1111 5
b1111 :
b101 #
b101 3
b101 8
b101 "
b101 4
b101 9
b101 $
b101 2
b101 7
b100 %
b100 1
b100 &
b100 <
b100 =
0-
1,
1)
#800000
0)
#900000
b10 '
b10 0
b10 6
b1111 #
b1111 3
b1111 8
b1111 "
b1111 4
b1111 9
b101 %
b101 1
b101 &
b101 <
b101 =
0,
1)
#1000000
0)
#1100000
b11 '
b11 0
b11 6
b101 !
b101 5
b101 :
b1111 $
b1111 2
b1111 7
b110 %
b110 1
b110 &
b110 <
b110 =
1-
1,
1)
#1200000
0)
#1300000
b100 '
b100 0
b100 6
b101 #
b101 3
b101 8
b101 "
b101 4
b101 9
b111 %
b111 1
b111 &
b111 <
b111 =
0,
1)
#1400000
0)
#1500000
b1 '
b1 0
b1 6
b0 "
b0 4
b0 9
b0 $
b0 2
b0 7
b1000 %
b1000 1
b1000 &
b1000 <
b1000 =
0-
1,
1)
#1600000
0)
#1700000
b10 '
b10 0
b10 6
b1111 !
b1111 5
b1111 :
b1010 "
b1010 4
b1010 9
b1001 %
b1001 1
b1001 &
b1001 <
b1001 =
0,
1)
#1800000
0)
#1900000
b100 '
b100 0
b100 6
b101 !
b101 5
b101 :
b1111 #
b1111 3
b1111 8
b0 "
b0 4
b0 9
b1010 $
b1010 2
b1010 7
b1010 %
b1010 1
b1010 &
b1010 <
b1010 =
1-
1,
1)
#2000000
0)
#2100000
b11 '
b11 0
b11 6
b1111 !
b1111 5
b1111 :
b1010 "
b1010 4
b1010 9
b1011 %
b1011 1
b1011 &
b1011 <
b1011 =
0,
1)
#2200000
0)
#2300000
b111 '
b111 0
b111 6
b0 !
b0 5
b0 :
b0 #
b0 3
b0 8
b0 "
b0 4
b0 9
b0 $
b0 2
b0 7
b1100 %
b1100 1
b1100 &
b1100 <
b1100 =
0-
1,
1)
